<?xml version="1.0" encoding="utf-8"?>
<!-- Generator: Adobe Illustrator 25.0.0, SVG Export Plug-In . SVG Version: 6.00 Build 0)  -->
<svg version="1.1" id="Layer_1" xmlns="http://www.w3.org/2000/svg" xmlns:xlink="http://www.w3.org/1999/xlink" x="0px" y="0px"
	 viewBox="0 0 1000 1000" style="enable-background:new 0 0 1000 1000;" xml:space="preserve">
<style type="text/css">
	.st0{fill:none;stroke:#000000;stroke-width:9.3601;stroke-miterlimit:10;}
	.st1{fill:none;stroke:#000000;stroke-width:0.6285;stroke-miterlimit:10;}
</style>
<path class="st0" d="M333.3,808.3C367,823,401,838,436,851c20,8,38,18,58,26c14,5,27,11,40,17c2,1,3,0,5,1c15,7,29,14,44,20
	c32,12,62,26,94,38c13,4,26,8,40,9c23,1,46,0,67-9c14-7,27-16,37-29c3-5,6-8,9-13c12-21,19-43,24-67c0-2,0-3,0-5c6-36,11-74-12-105
	c-7-9-16-13-26-16c-8-1-16-2-24-1c-25,4-46,17-71,19c-7,1-15,0-22-1c-73-11-129-66-161-129c-11-21-18-42-26-63c-4-10-7-21-10-31
	c-3-11-6-21-9-32c-12-47-19-93-22-140c-1-36,0-72,6-108c2-18,5-36,16-51c9-12,23-20,38-18c25,3,39,26,47,48c1,5,4,9,5,13
	c3,26,1,51,8,76c4,12,8,23,15,34c4,5,8,11,14,14s12,5,19,4c5-1,10-3,15-6c15-7,23-22,32-36c10-17,18-34,24-52c6-20,11-40,9-61
	c-2-19-15-35-32-45c-1-1-2-2-3-3c-24-15-49-21-73-35c-5-3-10-6-15-9c-14-10-24-21-34-36c-6-8-14-12-21-18c-1-1,1,1,0,0
	c-28-15-71-17-99-3c-1,1,1-1,0,0c-14,7-25,16-35,28c-21,27-29,59-32,92c-3,43-3,86,8,129c3,8,5,16,10,23c9,14,17,25,27,38
	c7,11,12,21,17,32c1,2,0,3,1,5c5,11,11,22,9,34c-5,30-22,53-46,71c-12,9-25,15-39,19c-28,8-57,5-86,7c-12,1-23,4-34,8
	c-11,5-21,13-30,21c-5,6-11,12-13.3,20.4c0,0-16.9,68.5-53.6,62.7c0,0-14.8-4.1-22.2-5c-11.7-1.4-24-1.4-34.2,5.1
	c-16.9,10.8-20.8,35.9-7.2,51.2c8.2,9.2,20.2,15.2,30.9,20.8c12.2,6.4,23.8,13.9,36.6,19.2c26.2,10.9,52.2,22.1,78.1,33.7
	c12.3,5.5,25.3,9.2,37.2,15.4c5.9,3.1,11.7,6.3,17.8,9c5.8,2.6,12.2,3.6,17.8,6.6"/>
<path class="st0" d="M169,647.3"/>
<g>
	
		<rect x="230.6" y="792.6" transform="matrix(0.3938 -0.9192 0.9192 0.3938 -555.8506 778.7145)" class="st1" width="163.8" height="36.3"/>
	<rect x="266.4" y="865" transform="matrix(0.3938 -0.9192 0.9192 0.3938 -636.4761 783.0958)" width="18.2" height="18.2"/>
	<rect x="290.3" y="855.5" transform="matrix(0.3938 -0.9192 0.9192 0.3938 -613.2939 799.3)" width="18.2" height="18.2"/>
	<rect x="280.7" y="831.6" transform="matrix(0.3938 -0.9192 0.9192 0.3938 -597.1092 776.0095)" width="18.2" height="18.2"/>
	<rect x="304.6" y="822.1" transform="matrix(0.3938 -0.9192 0.9192 0.3938 -573.9271 792.2137)" width="18.2" height="18.2"/>
	<rect x="295" y="798.2" transform="matrix(0.3938 -0.9192 0.9192 0.3938 -557.7424 768.9231)" width="18.2" height="18.2"/>
	<polygon points="316,802.6 316.6,801.2 323.2,785.9 339.9,793.1 339.9,793.1 333.3,808.4 332.7,809.8 	"/>
	<rect x="309.3" y="764.8" transform="matrix(0.3938 -0.9192 0.9192 0.3938 -518.3756 761.8367)" width="18.2" height="18.2"/>
	<rect x="333.3" y="755.1" transform="matrix(0.3938 -0.9192 0.9192 0.3938 -494.9432 777.9945)" width="18.2" height="18.2"/>
	<rect x="323.7" y="731.2" transform="matrix(0.3938 -0.9192 0.9192 0.3938 -478.7586 754.704)" width="18.2" height="18.2"/>
</g>
<rect x="117.9" y="690" transform="matrix(0.3938 -0.9192 0.9192 0.3938 -608.058 573.0273)" width="25" height="115"/>
<rect x="399.6" y="816.6" transform="matrix(0.3938 -0.9192 0.9192 0.3938 -553.6546 908.6798)" width="25" height="115"/>
<rect x="814.3" y="880.7" transform="matrix(0.2991 -0.9542 0.9542 0.2991 -241.3334 1457.85)" width="115" height="25"/>
<rect x="702" y="683.4" transform="matrix(0.9708 -0.24 0.24 0.9708 -144.8087 202.5878)" width="115" height="25"/>
<rect x="542.6" y="514.6" transform="matrix(0.91 -0.4146 0.4146 0.91 -187.2589 281.6681)" width="25" height="115"/>
<rect x="442.5" y="300.3" transform="matrix(1.430849e-02 -0.9999 0.9999 1.430849e-02 180.0317 808.3185)" width="115" height="25"/>
<rect x="666.7" y="285.7" transform="matrix(0.4167 -0.9091 0.9091 0.4167 151.3691 832.2972)" width="115" height="25"/>
<rect x="646.4" y="47" transform="matrix(0.4609 -0.8874 0.8874 0.4609 262.4565 641.0414)" width="25" height="115"/>
<rect x="300.5" y="109.3" transform="matrix(0.1744 -0.9847 0.9847 0.1744 175.6511 453.1158)" width="115" height="25"/>
<rect x="261.5" y="472.5" transform="matrix(0.9933 -0.1157 0.1157 0.9933 -54.1493 41.2895)" width="134.1" height="29.1"/>
</svg>
